Algorithme Le plus grand ;

Variables i,x,val : entier ;
          
début
     val <-- 0; 
     pour i de 1 à 20 faire
           afficher(′′Entrer le nombre numéro′′,i) ;
           saisir(x) ;
           si x>val
              alors val <-- x
           fsi
     fpour

     afficher(′′Le plus grand de ces nombres est:′′,val ;
fin.